<?xml version="1.0" standalone="no"?>
<!DOCTYPE svg PUBLIC "-//W3C//DTD SVG 20010904//EN"
 "http://www.w3.org/TR/2001/REC-SVG-20010904/DTD/svg10.dtd">
<svg version="1.0" xmlns="http://www.w3.org/2000/svg"
 width="208.000000pt" height="208.000000pt" viewBox="0 0 208.000000 208.000000"
 preserveAspectRatio="xMidYMid meet">
<metadata>
Created by potrace 1.11, written by Peter Selinger 2001-2013
</metadata>
<g transform="translate(0.000000,208.000000) scale(0.100000,-0.100000)"
fill="#000000" stroke="none">
<path d="M1160 1879 c-378 -41 -740 -192 -913 -379 -144 -155 -148 -322 -12
-454 84 -82 197 -126 489 -191 240 -53 343 -82 408 -117 80 -43 108 -77 108
-135 0 -62 -25 -99 -88 -130 -50 -24 -58 -25 -175 -20 -98 4 -150 12 -262 42
-234 63 -258 67 -287 56 -37 -14 -43 -53 -18 -133 28 -92 74 -157 132 -185
108 -54 380 -125 546 -143 325 -36 561 105 675 405 83 216 38 387 -137 520
-91 69 -251 129 -503 190 -242 57 -303 87 -303 150 0 96 150 166 387 181 164
10 340 -22 508 -93 104 -43 154 -44 188 -3 32 38 66 127 79 207 11 70 1 103
-42 134 -37 27 -153 65 -255 84 -108 20 -404 28 -525 14z m57 -101 c9 -7 10
-16 2 -29 -13 -25 -84 -27 -97 -2 -23 40 53 65 95 31z m521 1 c17 -6 38 -21
46 -34 18 -27 22 -125 6 -125 -5 0 -10 -6 -10 -13 0 -23 -43 -40 -99 -38 -47
1 -59 6 -82 32 -35 39 -41 74 -22 122 24 60 87 82 161 56z m70 -14 c-3 -3 -9
2 -12 12 -6 14 -5 15 5 6 7 -7 10 -15 7 -18z m-993 -5 c-3 -5 -11 -10 -16 -10
-6 0 -7 5 -4 10 3 6 11 10 16 10 6 0 7 -4 4 -10z m267 -53 c5 -7 11 -22 14
-34 28 -106 -142 -148 -195 -49 -21 38 10 92 57 103 41 10 112 -1 124 -20z
m-290 -8 c27 -14 40 -47 33 -79 -13 -60 -113 -90 -176 -53 -31 19 -52 64 -42
91 9 25 45 53 59 48 7 -3 18 1 24 9 11 13 61 6 102 -16z m660 19 c34 -28 21
-67 -29 -82 -34 -11 -83 19 -83 50 0 38 76 60 112 32z m-877 -58 c-3 -5 -14
-10 -23 -10 -15 0 -15 2 -2 10 20 13 33 13 25 0z m1362 -12 c-3 -8 -6 -5 -6 6
-1 11 2 17 5 13 3 -3 4 -12 1 -19z m-1426 -11 c-6 -8 -8 -17 -4 -21 4 -4 0 -4
-10 0 -17 6 -17 7 0 20 23 17 28 18 14 1z m-46 -27 c-3 -5 -12 -10 -18 -10 -7
0 -6 4 3 10 19 12 23 12 15 0z m1428 -20 c-3 -12 -8 -19 -11 -16 -5 6 5 36 12
36 2 0 2 -9 -1 -20z m-460 3 c-7 -2 -21 -2 -30 0 -10 3 -4 5 12 5 17 0 24 -2
18 -5z m-270 -20 c-7 -2 -19 -2 -25 0 -7 3 -2 5 12 5 14 0 19 -2 13 -5z m407
-24 c0 -5 -4 -9 -8 -9 -5 0 -9 7 -9 15 0 8 4 12 9 9 4 -3 8 -9 8 -15z m-599
-4 c0 -5 -5 -11 -13 -13 -10 -3 -10 -1 1 6 11 8 10 11 -5 15 -16 5 -16 6 -1 4
10 -1 18 -6 18 -12z m566 9 c-3 -3 -12 -4 -19 -1 -8 3 -5 6 6 6 11 1 17 -2 13
-5z m-1102 -14 c-3 -5 -12 -10 -18 -10 -7 0 -6 4 3 10 19 12 23 12 15 0z m-67
-14 c-7 -8 -15 -12 -17 -11 -5 6 10 25 20 25 5 0 4 -6 -3 -14z m489 -21 c0 -8
-4 -12 -9 -9 -5 3 -6 10 -3 15 9 13 12 11 12 -6z m993 -10 c0 -8 -4 -15 -10
-15 -5 0 -7 7 -4 15 4 8 8 15 10 15 2 0 4 -7 4 -15z m40 -4 c0 -12 -29 -41
-40 -41 -5 0 1 11 13 24 26 28 27 29 27 17z m-1399 -24 c15 -20 15 -27 3 -55
-10 -25 -19 -32 -42 -32 -36 0 -52 16 -52 55 0 17 5 36 12 43 19 19 61 13 79
-11z m1284 3 c3 -6 -1 -7 -9 -4 -18 7 -21 14 -7 14 6 0 13 -4 16 -10z m-1077
-19 c32 -27 42 -87 23 -133 -15 -34 -19 -38 -55 -38 -50 0 -65 20 -66 88 0 43
5 57 25 77 29 30 45 31 73 6z m-403 -9 c-3 -3 -11 0 -18 7 -9 10 -8 11 6 5 10
-3 15 -9 12 -12z m-64 -75 c-10 -9 -11 -8 -5 6 3 10 9 15 12 12 3 -3 0 -11 -7
-18z m176 -49 c18 -7 33 -16 33 -21 0 -5 7 -15 15 -23 32 -32 9 -126 -37 -150
-35 -18 -99 -14 -125 8 -26 21 -43 74 -36 110 7 37 20 52 60 73 34 18 47 18
90 3z m384 -25 c12 -16 12 -17 -2 -6 -9 7 -20 9 -24 5 -5 -4 -5 -1 -1 6 9 16
11 15 27 -5z m326 -129 c-3 -3 -12 -4 -19 -1 -8 3 -5 6 6 6 11 1 17 -2 13 -5z
m-330 -14 c82 -19 120 -92 71 -137 -38 -34 -64 -43 -123 -43 -43 0 -64 6 -95
26 -35 23 -40 32 -40 63 1 41 12 59 55 83 34 20 71 22 132 8z m307 -56 c64
-63 6 -132 -86 -103 -44 14 -53 44 -25 88 16 26 25 31 57 31 22 0 45 -7 54
-16z m-822 -8 c7 4 8 2 4 -5 -9 -13 -26 -5 -25 12 0 9 2 8 6 -1 2 -6 10 -9 15
-6z m1133 -6 c3 -5 1 -10 -4 -10 -6 0 -11 5 -11 10 0 6 2 10 4 10 3 0 8 -4 11
-10z m61 -61 c27 -29 31 -46 21 -100 -10 -50 -64 -79 -122 -65 -22 5 -47 17
-56 27 -9 10 -19 16 -23 12 -14 -14 -5 84 10 107 28 42 46 51 97 48 36 -2 54
-9 73 -29z m105 -17 c17 -15 19 -21 9 -27 -9 -5 -11 -4 -6 4 5 7 -5 17 -26 26
-18 8 -26 14 -17 15 9 0 27 -8 40 -18z m43 -30 c3 -5 -1 -9 -9 -9 -8 0 -12 4
-9 9 3 4 7 8 9 8 2 0 6 -4 9 -8z m-984 -26 c0 -2 -7 -7 -16 -10 -8 -3 -12 -2
-9 4 6 10 25 14 25 6z m577 -35 c18 -24 15 -59 -7 -83 -17 -18 -25 -20 -61
-12 -35 7 -44 14 -50 36 -4 16 -2 38 4 52 18 38 87 42 114 7z m463 -7 c0 -8
-19 -13 -24 -6 -3 5 1 9 9 9 8 0 15 -2 15 -3z m13 -25 c-8 -8 -6 -16 8 -30 21
-21 25 -49 8 -49 -5 0 -7 -5 -4 -10 9 -15 -11 -37 -41 -44 -20 -5 -32 -1 -50
18 -42 41 -19 106 38 106 17 0 31 6 35 15 3 9 8 13 11 10 3 -3 1 -10 -5 -16z
m57 -64 c0 -5 -5 -3 -10 5 -5 8 -10 20 -10 25 0 6 5 3 10 -5 5 -8 10 -19 10
-25z m-249 -54 c34 -35 36 -52 8 -97 -18 -29 -26 -34 -61 -34 -30 0 -46 7 -69
29 -36 37 -37 67 -2 103 37 39 84 38 124 -1z m-306 1 c-3 -3 -11 0 -18 7 -9
10 -8 11 6 5 10 -3 15 -9 12 -12z m125 -86 c0 -3 -4 -8 -10 -11 -5 -3 -10 -1
-10 4 0 6 5 11 10 11 6 0 10 -2 10 -4z m375 -13 c34 -16 36 -19 33 -62 -3 -39
-7 -48 -36 -64 -32 -19 -36 -19 -68 -3 -64 30 -65 104 -2 131 18 8 34 14 35
15 1 0 18 -8 38 -17z m66 -80 c-12 -20 -14 -14 -5 12 4 9 9 14 11 11 3 -2 0
-13 -6 -23z m-437 1 c3 -8 2 -12 -4 -9 -6 3 -10 10 -10 16 0 14 7 11 14 -7z
m-20 -34 c-5 -5 -10 3 -11 18 -1 22 0 24 9 8 6 -10 6 -22 2 -26z m77 0 c23
-13 25 -55 3 -64 -29 -11 -62 -6 -68 10 -11 28 -7 41 17 52 28 14 25 14 48 2z
m-894 -46 c-3 -3 -12 -4 -19 -1 -8 3 -5 6 6 6 11 1 17 -2 13 -5z m205 -84 c33
-36 33 -72 -1 -108 -25 -28 -36 -33 -71 -30 -32 1 -47 9 -66 31 -13 16 -24 34
-24 41 0 30 22 72 43 83 30 16 98 6 119 -17z m851 -2 c26 -18 47 -54 47 -78 0
-22 -62 -78 -93 -84 -41 -8 -94 7 -123 35 -32 30 -27 91 12 124 45 39 104 40
157 3z m-323 12 c0 -5 -7 -7 -15 -4 -8 4 -15 8 -15 10 0 2 7 4 15 4 8 0 15 -4
15 -10z m-405 -20 c3 -6 -1 -7 -9 -4 -18 7 -21 14 -7 14 6 0 13 -4 16 -10z
m41 -80 c-5 -31 -27 -60 -47 -60 -4 0 -14 11 -23 25 -32 48 11 109 57 81 14
-8 17 -19 13 -46z m434 32 c36 -32 33 -55 -11 -78 -39 -20 -109 -9 -109 17 0
11 -4 19 -10 19 -19 0 12 47 38 57 43 17 60 15 92 -15z m340 8 c0 -5 -5 -10
-11 -10 -5 0 -7 5 -4 10 3 6 8 10 11 10 2 0 4 -4 4 -10z m-544 -44 c31 -57 37
-106 13 -106 -5 0 -9 -6 -9 -14 0 -13 -41 -26 -85 -26 -12 0 -32 11 -45 25
-61 65 -10 142 85 128 22 -3 40 -6 41 -7z m539 -6 c3 -6 -1 -7 -9 -4 -18 7
-21 14 -7 14 6 0 13 -4 16 -10z m-323 -107 c10 -9 18 -22 18 -29 0 -20 -37
-36 -73 -32 -25 2 -33 8 -35 26 -7 44 54 68 90 35z m-272 -57 c0 -3 -4 -8 -10
-11 -5 -3 -10 -1 -10 4 0 6 5 11 10 11 6 0 10 -2 10 -4z m117 -22 c-3 -3 -12
-4 -19 -1 -8 3 -5 6 6 6 11 1 17 -2 13 -5z m76 -11 c-7 -2 -19 -2 -25 0 -7 3
-2 5 12 5 14 0 19 -2 13 -5z"/>
</g>
</svg>
